Example Workflow
…
nn_tune |> 
  collect_metrics() |> 
  filter(.metric == "roc_auc") |> 
  arrange(desc(mean)) 

# A tibble: 125 × 9
   hidden_units    penalty epochs .metric .estimator  mean     n std_err .config
          <int>      <dbl>  <int> <chr>   <chr>      <dbl> <int>   <dbl> <chr>  
 1           10   3.16e- 3   1000 roc_auc binary     0.536    10  0.0175 Prepro…
 2            7   3.16e- 3    505 roc_auc binary     0.534    10  0.0147 Prepro…
 3            1   1   e- 5    752 roc_auc binary     0.532    10  0.0114 Prepro…
 4           10   1   e-10    257 roc_auc binary     0.529    10  0.0270 Prepro…
 5            1   1   e- 5   1000 roc_auc binary     0.528    10  0.0156 Prepro…
 6            3   3.16e- 3   1000 roc_auc binary     0.526    10  0.0128 Prepro…
 7           10   3.16e- 8    752 roc_auc binary     0.525    10  0.0133 Prepro…
 8           10   1   e+ 0   1000 roc_auc binary     0.524    10  0.0145 Prepro…
 9           10   3.16e- 3    505 roc_auc binary     0.523    10  0.0193 Prepro…
10            5   3.16e- 8    752 roc_auc binary     0.522    10  0.0168 Prepro…
# ℹ 115 more rows

nn_tune |> 
  collect_metrics() |> 
  filter(.metric == "accuracy") |> 
  arrange(desc(mean)) 

# A tibble: 125 × 9
   hidden_units    penalty epochs .metric .estimator  mean     n std_err .config
          <int>      <dbl>  <int> <chr>   <chr>      <dbl> <int>   <dbl> <chr>  
 1            7      1e+ 0     10 accura… binary     0.557    10  0.0142 Prepro…
 2            1      1e- 5    752 accura… binary     0.555    10  0.0115 Prepro…
 3            1      1e+ 0     10 accura… binary     0.554    10  0.0151 Prepro…
 4           10      1e+ 0     10 accura… binary     0.552    10  0.0153 Prepro…
 5            3      1e+ 0     10 accura… binary     0.551    10  0.0151 Prepro…
 6            5      1e+ 0     10 accura… binary     0.551    10  0.0157 Prepro…
 7            7      1e-10     10 accura… binary     0.548    10  0.0172 Prepro…
 8            1      1e+ 0    752 accura… binary     0.547    10  0.0178 Prepro…
 9            1      1e+ 0   1000 accura… binary     0.546    10  0.0177 Prepro…
10            1      1e+ 0    257 accura… binary     0.546    10  0.0174 Prepro…
# ℹ 115 more rows

nn_tune |>
  collect_metrics() |>
  filter(.metric == "brier_class") |>
  arrange(mean)

# A tibble: 125 × 9
   hidden_units    penalty epochs .metric .estimator  mean     n std_err .config
          <int>      <dbl>  <int> <chr>   <chr>      <dbl> <int>   <dbl> <chr>  
 1            1   1   e- 5    752 brier_… binary     0.246    10 0.00161 Prepro…
 2            1   1   e- 5   1000 brier_… binary     0.247    10 0.00219 Prepro…
 3            1   3.16e- 8     10 brier_… binary     0.247    10 0.00156 Prepro…
 4            1   1   e+ 0     10 brier_… binary     0.247    10 0.00154 Prepro…
 5            1   1   e-10    505 brier_… binary     0.247    10 0.00197 Prepro…
 6            1   1   e- 5     10 brier_… binary     0.247    10 0.00196 Prepro…
 7            1   3.16e- 3    257 brier_… binary     0.248    10 0.00227 Prepro…
 8            3   1   e+ 0     10 brier_… binary     0.248    10 0.00146 Prepro…
 9            1   1   e+ 0   1000 brier_… binary     0.248    10 0.00145 Prepro…
10            1   1   e+ 0    257 brier_… binary     0.248    10 0.00144 Prepro…
# ℹ 115 more rows
…
